<?xml version="1.0" encoding="utf-8"?>
<!-- Generator: Adobe Illustrator 19.2.0, SVG Export Plug-In . SVG Version: 6.00 Build 0)  -->
<svg version="1.1" xmlns="http://www.w3.org/2000/svg" xmlns:xlink="http://www.w3.org/1999/xlink" x="0px" y="0px"
	 viewBox="0 0 368.5 368.5" style="enable-background:new 0 0 368.5 368.5;" xml:space="preserve">
<g id="CUT">
	<g>
		<path d="M184.3,354.3c-93.8,0-170.1-76.3-170.1-170.1S90.5,14.2,184.3,14.2c93.8,0,170.1,76.3,170.1,170.1S278,354.3,184.3,354.3z
			 M184.3,34.2c-82.7,0-150.1,67.3-150.1,150.1s67.3,150.1,150.1,150.1c82.7,0,150.1-67.3,150.1-150.1S267,34.2,184.3,34.2z"/>
	</g>
</g>
<g id="Ebene_1">
	<path d="M267.8,223.6v-27.3v-35.8h-42.2l-26.2,21.8L186,193.7l-21.9-26.9l45-36.1h-44.5l-42.4,36.4V91.3h-32v136.9h32v-28l17-13.5
		l19.5,24.7L142,224.6l0.1,22.7h93.2v25.6h32.4v-25.6h24.3v-23.7H267.8z M235.4,194.9v28.7h-42.9l35.5-29.8l7.4-6.2V194.9z"/>
</g>
</svg>
